[
  {
    "title": "Başlık-1",
    "body": "İçerik-1"
  },
  {
    "title": "Başlık-2",
    "body": "İçerik-2"
  },
  {
    "title": "Başlık-4",
    "body": "İçerik-4"
  },
  {
    "title": "Yeni",
    "body": "Yeni body"
  },
  {
    "title": "Yeni-2",
    "body": "Ahmet was here"
  },
  {
    "title": "Yeni-3",
    "body": "Olcay was here"
  },
  {
    "title": "Yeni-4",
    "body": "Nadir was here"
  }
]